…
## Setup for coding

## Problem 1

Let’s load the dataset:

``` r
data("instacart")

instacart
```

    ## # A tibble: 1,384,617 × 15
    ##    order_id product_id add_to_…¹ reord…² user_id eval_…³ order…⁴ order…⁵ order…⁶
    ##       <int>      <int>     <int>   <int>   <int> <chr>     <int>   <int>   <int>
    ##  1        1      49302         1       1  112108 train         4       4      10
    ##  2        1      11109         2       1  112108 train         4       4      10
    ##  3        1      10246         3       0  112108 train         4       4      10
    ##  4        1      49683         4       0  112108 train         4       4      10
    ##  5        1      43633         5       1  112108 train         4       4      10
    ##  6        1      13176         6       0  112108 train         4       4      10
    ##  7        1      47209         7       0  112108 train         4       4      10
    ##  8        1      22035         8       1  112108 train         4       4      10
    ##  9       36      39612         1       0   79431 train        23       6      18
    ## 10       36      19660         2       1   79431 train        23       6      18
    ## # … with 1,384,607 more rows, 6 more variables: days_since_prior_order <int>,
    ## #   product_name <chr>, aisle_id <int>, department_id <int>, aisle <chr>,
    ## #   department <chr>, and abbreviated variable names ¹​add_to_cart_order,
    ## #   ²​reordered, ³​eval_set, ⁴​order_number, ⁵​order_dow, ⁶​order_hour_of_day
…
    ## # A tibble: 1 × 1
    ##   `n_distinct(aisle)`
    ##                 <int>
    ## 1                 134

``` r
instacart %>% 
  count(aisle) %>% 
  arrange(desc(n))
```

    ## # A tibble: 134 × 2
    ##    aisle                              n
    ##    <chr>                          <int>
    ##  1 fresh vegetables              150609
    ##  2 fresh fruits                  150473
    ##  3 packaged vegetables fruits     78493
    ##  4 yogurt                         55240
    ##  5 packaged cheese                41699
    ##  6 water seltzer sparkling water  36617
    ##  7 milk                           32644
    ##  8 chips pretzels                 31269
    ##  9 soy lactosefree                26240
    ## 10 bread                          23635
    ## # … with 124 more rows
…
    ## Rows: 35 Columns: 1443
    ## ── Column specification ────────────────────────────────────────────────────────
    ## Delimiter: ","
    ## chr    (1): day
    ## dbl (1442): week, day_id, activity.1, activity.2, activity.3, activity.4, ac...
    ## 
    ## ℹ Use `spec()` to retrieve the full column specification for this data.
    ## ℹ Specify the column types or set `show_col_types = FALSE` to quiet this message.

``` r
accel
```

    ## # A tibble: 50,400 × 6
    ##     week day_id day    minute activity_count day_type
    ##    <dbl>  <dbl> <fct>   <dbl>          <dbl> <fct>   
    ##  1     1      1 Friday      1           88.4 weekday 
    ##  2     1      1 Friday      2           82.2 weekday 
    ##  3     1      1 Friday      3           64.4 weekday 
    ##  4     1      1 Friday      4           70.0 weekday 
    ##  5     1      1 Friday      5           75.0 weekday 
    ##  6     1      1 Friday      6           66.3 weekday 
    ##  7     1      1 Friday      7           53.8 weekday 
    ##  8     1      1 Friday      8           47.8 weekday 
    ##  9     1      1 Friday      9           55.5 weekday 
    ## 10     1      1 Friday     10           43.0 weekday 
    ## # … with 50,390 more rows
…
## Problem 3

Let’s load the data:

``` r
data("ny_noaa")

ny_noaa
```

    ## # A tibble: 2,595,176 × 7
    ##    id          date        prcp  snow  snwd tmax  tmin 
    ##    <chr>       <date>     <int> <int> <int> <chr> <chr>
    ##  1 US1NYAB0001 2007-11-01    NA    NA    NA <NA>  <NA> 
    ##  2 US1NYAB0001 2007-11-02    NA    NA    NA <NA>  <NA> 
    ##  3 US1NYAB0001 2007-11-03    NA    NA    NA <NA>  <NA> 
    ##  4 US1NYAB0001 2007-11-04    NA    NA    NA <NA>  <NA> 
    ##  5 US1NYAB0001 2007-11-05    NA    NA    NA <NA>  <NA> 
    ##  6 US1NYAB0001 2007-11-06    NA    NA    NA <NA>  <NA> 
    ##  7 US1NYAB0001 2007-11-07    NA    NA    NA <NA>  <NA> 
    ##  8 US1NYAB0001 2007-11-08    NA    NA    NA <NA>  <NA> 
    ##  9 US1NYAB0001 2007-11-09    NA    NA    NA <NA>  <NA> 
    ## 10 US1NYAB0001 2007-11-10    NA    NA    NA <NA>  <NA> 
    ## # … with 2,595,166 more rows
…
Let’s now do some data cleaning of this dataset:

``` r
ny_noaa_clean <- ny_noaa %>% 
  janitor::clean_names() %>%
  separate(date, sep = "-", into = c("year", "month", "day")) %>%
  mutate_at(c(2:9), as.numeric) %>% 
  mutate(prcp = prcp/10) %>% 
  mutate(tmin = tmin/10, tmax = tmax/10) %>% 
  mutate(month = month.name[as.numeric(month)])
ny_noaa_clean
```

    ## # A tibble: 2,595,176 × 9
    ##    id           year month      day  prcp  snow  snwd  tmax  tmin
    ##    <chr>       <dbl> <chr>    <dbl> <dbl> <dbl> <dbl> <dbl> <dbl>
    ##  1 US1NYAB0001  2007 November     1    NA    NA    NA    NA    NA
    ##  2 US1NYAB0001  2007 November     2    NA    NA    NA    NA    NA
    ##  3 US1NYAB0001  2007 November     3    NA    NA    NA    NA    NA
    ##  4 US1NYAB0001  2007 November     4    NA    NA    NA    NA    NA
    ##  5 US1NYAB0001  2007 November     5    NA    NA    NA    NA    NA
    ##  6 US1NYAB0001  2007 November     6    NA    NA    NA    NA    NA
    ##  7 US1NYAB0001  2007 November     7    NA    NA    NA    NA    NA
    ##  8 US1NYAB0001  2007 November     8    NA    NA    NA    NA    NA
    ##  9 US1NYAB0001  2007 November     9    NA    NA    NA    NA    NA
    ## 10 US1NYAB0001  2007 November    10    NA    NA    NA    NA    NA
    ## # … with 2,595,166 more rows
…
